{
  "defaultConnection": "default",
  "connections": {
    "default": {
      "connector": "strapi-hook-bookshelf",
      "settings": {
        "client": "postgres",
        "host": "mystrapi.cnsmst5yamos.ap-southeast-1.rds.amazonaws.com",
        "srv": false,
        "port": 5432,
        "database": "mystrapi",
        "username": "mystrapi",
        "password": "mystrapi123"
      },
      "options": {
        "ssl": false
      }
    }
  }
}
